<svg width="18" height="10" viewBox="0 0 18 10" fill="none" xmlns="http://www.w3.org/2000/svg">
<path fill-rule="evenodd" clip-rule="evenodd" d="M16.8338 0L8.99999 7.70576L1.16617 0L0 1.14711L8.99999 10L18 1.14711L16.8338 0Z" fill="#C4C4C4"/>
</svg>
