<svg width="35" height="35" viewBox="0 0 35 35" fill="none" xmlns="http://www.w3.org/2000/svg">
<path d="M17.5007 24.9806C18.2519 24.9806 18.8608 24.3716 18.8608 23.6205C18.8608 22.8693 18.2519 22.2604 17.5007 22.2604C16.7496 22.2604 16.1406 22.8693 16.1406 23.6205C16.1406 24.3716 16.7496 24.9806 17.5007 24.9806Z" fill="black"/>
<path d="M35 17.5C35 7.84326 27.1567 0 17.5 0C7.84326 0 0 7.84326 0 17.5C0 27.1567 7.84326 35 17.5 35C27.1567 35 35 27.1567 35 17.5ZM1.90415 17.5C1.90415 8.93135 8.88601 1.90415 17.5 1.90415C26.114 1.90415 33.0959 8.93135 33.0959 17.5C33.0959 26.0687 26.0687 33.0959 17.5 33.0959C8.93135 33.0959 1.90415 26.0687 1.90415 17.5Z" fill="black"/>
<path d="M20.1265 13.9184C20.1719 15.0518 19.4918 16.0946 18.4491 16.5026C17.2703 16.956 16.4996 18.1347 16.4996 19.4495V20.0842H18.4037V19.4495C18.4037 18.9508 18.7211 18.4521 19.1291 18.2707C20.9426 17.5454 22.076 15.7772 21.9853 13.8277C21.8947 11.5156 19.9452 9.56608 17.633 9.4754C16.4542 9.38473 15.2301 9.8381 14.3234 10.6995C13.4167 11.5609 12.918 12.7397 12.918 14.0091H14.8221C14.8221 13.2837 15.0941 12.6036 15.6382 12.1049C16.1822 11.6062 16.8623 11.3342 17.5877 11.3795C18.9931 11.4249 20.0812 12.5583 20.1265 13.9184Z" fill="black"/>
</svg>
