<svg width="22" height="22" viewBox="0 0 22 22" fill="none" xmlns="http://www.w3.org/2000/svg">
<path d="M11.001 4.85425C7.73337 4.85425 5.07422 7.39779 5.07422 10.5233C5.07422 13.6489 7.73337 16.1911 11.001 16.1911C14.2686 16.1911 16.9263 13.6489 16.9263 10.5233C16.9263 7.39779 14.2686 4.85425 11.001 4.85425ZM11.001 14.5757C8.66436 14.5757 6.76436 12.757 6.76436 10.5233C6.76436 8.2883 8.66436 6.47091 11.001 6.47091C13.3362 6.47091 15.2376 8.2883 15.2376 10.5233C15.2362 12.757 13.3362 14.5757 11.001 14.5757Z" fill="#C8C8C8"/>
<path d="M17.5727 5.40239C18.0044 5.40239 18.3544 5.06763 18.3544 4.65469C18.3544 4.24174 18.0044 3.90698 17.5727 3.90698C17.141 3.90698 16.791 4.24174 16.791 4.65469C16.791 5.06763 17.141 5.40239 17.5727 5.40239Z" fill="#C8C8C8"/>
<path d="M16.9014 0H5.09718C2.28169 0 0 2.18383 0 4.87691V16.1679C0 18.861 2.2831 21.0448 5.09718 21.0448H16.9014C19.7169 21.0448 22 18.861 22 16.1679V4.87826C22 2.18383 19.7169 0 16.9014 0ZM20.3099 16.1679C20.3099 17.9651 18.7803 19.4282 16.9014 19.4282H5.09718C3.21831 19.4282 1.69014 17.9651 1.69014 16.1679V4.87826C1.69014 3.08108 3.21831 1.618 5.09718 1.618H16.9014C18.7803 1.618 20.3099 3.07973 20.3099 4.87826V16.1679Z" fill="#C8C8C8"/>
</svg>
