<svg width="22" height="22" viewBox="0 0 22 22" fill="none" xmlns="http://www.w3.org/2000/svg">
<path d="M22 20.5879L16.4129 15.0008C19.3244 11.3823 19.103 6.05934 15.7457 2.70156C14.003 0.959366 11.6871 0 9.22324 0C6.75993 0 4.4437 0.959366 2.70178 2.70131C0.959105 4.44375 0 6.75976 0 9.22335C0 11.6869 0.959355 14.0034 2.70178 15.7454C4.44395 17.4876 6.75993 18.4469 9.22324 18.4469C11.3507 18.4469 13.3673 17.73 15.0006 16.4129L20.5877 22L22 20.5879ZM9.22324 16.4496C7.2933 16.4496 5.47871 15.6977 4.11409 14.3328C2.74897 12.9679 1.99737 11.1536 1.99737 9.22335C1.99737 7.29313 2.74897 5.47878 4.11409 4.11389C5.47871 2.749 7.2933 1.99739 9.22324 1.99739C11.1534 1.99739 12.9683 2.749 14.3334 4.11389C17.1503 6.93131 17.1503 11.5156 14.3334 14.3328C12.9683 15.6979 11.1534 16.4496 9.22324 16.4496Z" fill="black"/>
</svg>
