<svg width="230" height="230" viewBox="0 0 230 230" fill="none" xmlns="http://www.w3.org/2000/svg">
<path d="M114.999 9.28257C115.683 9.28257 116.237 8.72827 116.237 8.04517V1.23716C116.237 0.554057 115.683 -0.000244141 114.999 -0.000244141C114.314 -0.000244141 113.76 0.554057 113.76 1.23716V8.04517C113.76 8.72827 114.314 9.28257 114.999 9.28257Z" fill="black"/>
<path d="M114.999 220.719C114.314 220.719 113.76 221.271 113.76 221.956V228.762C113.76 229.448 114.314 230 114.999 230C115.683 230 116.237 229.448 116.237 228.762V221.956C116.237 221.273 115.683 220.719 114.999 220.719Z" fill="black"/>
<path d="M228.762 113.765H221.954C221.273 113.765 220.717 114.319 220.717 115.002C220.717 115.685 221.273 116.242 221.954 116.242H228.762C229.445 116.242 230 115.687 230 115.002C230 114.317 229.445 113.765 228.762 113.765Z" fill="black"/>
<path d="M8.04541 113.765H1.2374C0.552001 113.765 0 114.319 0 115.002C0 115.685 0.552001 116.242 1.2374 116.242H8.04311C8.72621 116.242 9.28051 115.687 9.28051 115.002C9.28051 114.317 8.72851 113.765 8.04541 113.765Z" fill="black"/>
<path d="M168.74 22.5197L172.089 16.5949C172.425 15.9992 172.218 15.2471 171.625 14.9067C171.027 14.5709 170.272 14.7802 169.936 15.3759L166.587 21.3007C166.249 21.8941 166.459 22.6485 167.054 22.9866C167.648 23.3224 168.404 23.1131 168.74 22.5197Z" fill="black"/>
<path d="M62.946 207.014C62.3503 206.678 61.5982 206.889 61.2601 207.483L57.9067 213.408C57.5709 214.003 57.7779 214.758 58.3759 215.091C58.9693 215.429 59.726 215.22 60.0618 214.627L63.4129 208.702C63.751 208.108 63.5417 207.352 62.946 207.014Z" fill="black"/>
<path d="M214.628 169.938L208.704 166.584C208.108 166.249 207.351 166.458 207.018 167.054C206.682 167.649 206.891 168.406 207.485 168.74L213.407 172.091C214.003 172.426 214.759 172.219 215.095 171.624C215.431 171.03 215.222 170.276 214.628 169.938Z" fill="black"/>
<path d="M22.9838 62.9515C23.3219 62.3535 23.1103 61.6014 22.5169 61.2633L16.5921 57.9122C15.9964 57.5741 15.242 57.7834 14.9062 58.3791C14.5704 58.9748 14.7797 59.7315 15.3754 60.0673L21.3002 63.4184C21.8936 63.7565 22.648 63.5449 22.9838 62.9515Z" fill="black"/>
<path d="M208.036 62.2267L213.922 58.7997C214.51 58.457 214.708 57.7003 214.365 57.1069C214.02 56.5181 213.264 56.3157 212.673 56.663L206.792 60.09C206.198 60.4327 206 61.1917 206.345 61.7805C206.69 62.3693 207.445 62.5717 208.036 62.2267Z" fill="black"/>
<path d="M21.9628 167.775L16.0794 171.202C15.4883 171.545 15.2882 172.304 15.6355 172.89C15.9782 173.484 16.7372 173.684 17.326 173.336L23.2071 169.909C23.7982 169.567 23.9983 168.81 23.6533 168.221C23.3106 167.628 22.5539 167.43 21.9628 167.775Z" fill="black"/>
<path d="M169.913 206.792C169.57 206.204 168.811 206.003 168.22 206.346C167.631 206.691 167.429 207.45 167.774 208.039L171.201 213.922C171.544 214.513 172.303 214.711 172.891 214.366C173.48 214.021 173.685 213.265 173.34 212.676L169.913 206.792Z" fill="black"/>
<path d="M61.7787 23.6554C62.3698 23.3127 62.5676 22.5537 62.2249 21.9649L58.7979 16.0838C58.4552 15.4904 57.6962 15.2926 57.1074 15.6399C56.5163 15.9826 56.3162 16.7393 56.6612 17.3304L60.0905 23.2115C60.4309 23.8003 61.1876 24.0004 61.7787 23.6554Z" fill="black"/>
</svg>
