<?xml version="1.0" encoding="iso-8859-1"?>
<!-- Generator: Adobe Illustrator 19.0.0, SVG Export Plug-In . SVG Version: 6.00 Build 0)  -->
<svg version="1.1" id="Layer_1" xmlns="http://www.w3.org/2000/svg" xmlns:xlink="http://www.w3.org/1999/xlink" x="0px" y="0px"
	 viewBox="0 0 512 512" style="enable-background:new 0 0 512 512;" xml:space="preserve">
<g>
	<g>
		<g>
			<polygon points="337.833,444.099 319.324,444.099 319.324,479.795 192.684,479.795 192.684,444.099 174.177,444.099
				174.177,479.795 142.003,479.795 142.003,498.301 174.177,498.301 174.177,498.304 337.833,498.304 337.833,498.301
				369.997,498.301 369.997,479.795 337.833,479.795 			"/>
			<path d="M504.197,21.524c-5.025-5.051-11.722-7.828-18.865-7.828H26.675c-7.109,0-13.809,2.765-18.885,7.826
				C2.767,26.573,0,33.265,0,40.361v307.64v18.504v31.383c0,7.148,2.788,13.852,7.793,18.834c5.005,5.046,11.712,7.823,18.875,7.823
				h458.665c7.165,0,13.868-2.775,18.839-7.785c5.048-5.038,7.828-11.735,7.828-18.872v-31.383v-18.504V40.364
				C512,33.267,509.23,26.575,504.197,21.524z M493.496,397.888c0,2.186-0.847,4.234-2.422,5.803c-1.508,1.516-3.543,2.35-5.74,2.35
				H26.668c-2.194,0-4.232-0.837-5.775-2.391c-1.539-1.531-2.386-3.574-2.386-5.763v-31.383h474.99V397.888z M18.506,348.001V40.361
				c0-2.173,0.855-4.229,2.378-5.76c1.554-1.546,3.61-2.401,5.791-2.401h458.657c2.181,0,4.221,0.842,5.747,2.373
				c1.556,1.567,2.414,3.622,2.414,5.788v307.64H18.506z"/>
			<path d="M32.901,333.606h446.198h0.003V46.595h-446.2V333.606z M51.405,65.101h409.19V315.1H51.405V65.101z"/>
			<path d="M128.387,296h255.232L256,74.957L128.387,296z M160.438,277.494L256,111.967l95.562,165.527H160.438z"/>
			<rect x="246.758" y="159.258" width="18.506" height="66.739"/>
			<rect x="246.758" y="244.045" width="18.506" height="18.048"/>
		</g>
	</g>
</g>
</svg>
