<?xml version="1.0" encoding="utf-8"?>
<!-- Generator: Adobe Illustrator 24.0.1, SVG Export Plug-In . SVG Version: 6.00 Build 0)  -->
<svg version="1.1" id="Layer_1" xmlns="http://www.w3.org/2000/svg" xmlns:xlink="http://www.w3.org/1999/xlink" x="0px" y="0px"
	 viewBox="0 0 512 512" style="enable-background:new 0 0 512 512;" xml:space="preserve">
<style type="text/css">
	.st0{fill:#FFAB90;}
	.st1{fill:#4D4D4D;}
</style>
<g>
	<polygon class="st0" points="302,278.1 256,416.2 210,278.1 	"/>
	<polygon class="st0" points="66.4,228.6 109.5,185.4 135.4,228.6 	"/>
	<polygon class="st0" points="445.6,228.7 402.4,185.6 376.5,228.7 	"/>
</g>
<g>
	<path class="st1" d="M256,505.3L0,249.3l110.9-110.7h290.2L512,249.3L256,505.3z M28.5,249.3L256,476.8l227.5-227.5l-90.8-90.6
		H119.2L28.5,249.3z"/>
	<rect x="175.5" y="239.2" class="st1" width="161" height="20.1"/>
	<polygon class="st1" points="246.4,494.2 168.2,259.3 14.3,259.3 14.3,239.2 182.7,239.2 265.5,487.8 	"/>
	<polygon class="st1" points="265.5,494.2 246.4,487.8 329.2,239.2 497.7,239.2 497.7,259.3 343.7,259.3 	"/>
	<polygon class="st1" points="193.3,259.3 14.3,259.3 14.3,239.2 157.7,239.2 106.4,153.8 123.7,143.4 	"/>
	
		<rect x="151.2" y="188.8" transform="matrix(0.6246 -0.7809 0.7809 0.6246 -74.3336 243.0732)" class="st1" width="128.9" height="20.1"/>
	<polygon class="st1" points="337.6,266.9 248.1,154.9 263.8,142.3 335.3,231.7 388.3,143.4 405.5,153.8 	"/>
	<rect x="245.9" y="6.7" class="st1" width="20.1" height="60.4"/>
	
		<rect x="287.7" y="39.2" transform="matrix(0.3828 -0.9238 0.9238 0.3828 150.715 324.1371)" class="st1" width="60.4" height="20.1"/>
	
		<rect x="340.3" y="74.4" transform="matrix(0.7071 -0.7071 0.7071 0.7071 48.8243 286.6905)" class="st1" width="60.4" height="20.1"/>
	
		<rect x="183.9" y="19.1" transform="matrix(0.9239 -0.3827 0.3827 0.9239 -4.1098 77.983)" class="st1" width="20.1" height="60.4"/>
	
		<rect x="131.4" y="54.2" transform="matrix(0.7072 -0.707 0.707 0.7072 -18.2511 124.7232)" class="st1" width="20.1" height="60.4"/>
</g>
</svg>
