<svg width="20" height="21" viewBox="0 0 20 21" fill="none" xmlns="http://www.w3.org/2000/svg">
<path d="M6.5 6.65442H2.5C1.94772 6.65442 1.5 7.10213 1.5 7.65442V16.6544C1.5 17.2067 1.94772 17.6544 2.5 17.6544H17.5C18.0523 17.6544 18.5 17.2067 18.5 16.6544V7.65442C18.5 7.10213 18.0523 6.65442 17.5 6.65442H13.5M6.5 6.65442V4.15442C6.5 3.60213 6.94772 3.15442 7.5 3.15442H12.5C13.0523 3.15442 13.5 3.60213 13.5 4.15442V6.65442M6.5 6.65442H13.5" stroke="white"/>
</svg>
