<svg width="16" height="12" viewBox="0 0 16 12" fill="none" xmlns="http://www.w3.org/2000/svg">
    <path d="M15.0667 3.98444C14.8 3.31261 14.6667 2.64077 14.4 2.23767L14.1333 1.56584C13.0667 0.894003 11.8667 0.490902 10.2667 0.222168L10 0.490902C11.2 0.894002 12.2667 1.43147 13.4667 2.23767C12.6667 1.83457 12 1.56584 11.3333 1.2971C10.6667 1.02837 10 1.02837 9.33333 0.894003C8.8 0.894003 8.4 0.759635 7.86667 0.759635C7.33333 0.759635 6.93333 0.759636 6.53333 0.894003H6.4H6.26667C6 0.894003 5.6 1.02837 5.06667 1.02837C4.53333 1.02837 3.86667 1.56584 3.2 1.83457C2.93333 1.96894 2.66667 2.1033 2.4 2.23767C3.6 1.43147 4.8 0.759636 6 0.490902L5.86667 0.356535C4.26667 0.490902 2.93333 1.02837 2 1.7002L1.6 2.37204C1.46667 2.77514 1.2 3.31261 0.933333 4.11881C0.666667 4.92501 0.533333 5.59684 0.266667 6.53741C0.133333 7.61235 0 8.55292 0 9.76222L0.266667 10.031C0.4 10.2997 0.666667 10.4341 0.933333 10.7028C1.2 10.9715 1.73333 11.2403 2.26667 11.3746C2.8 11.509 3.46667 11.7777 4.26667 11.7777C4.66667 11.2403 4.93333 10.8372 5.2 10.7028C4.26667 10.4341 3.46667 9.89659 2.66667 9.09039C2.8 9.22475 2.93333 9.22475 3.06667 9.35912H3.2C3.33333 9.49349 3.6 9.49349 3.73333 9.62785C3.86667 9.76222 4.13333 9.76222 4.26667 9.76222C4.53333 10.031 4.93333 10.031 5.2 10.1653C5.46667 10.2997 5.86667 10.2997 6.26667 10.4341C6.8 10.5684 7.33333 10.5684 8 10.5684C8.66667 10.5684 9.2 10.5684 9.86667 10.4341C10.1333 10.4341 10.5333 10.2997 10.8 10.1653C11.0667 10.031 11.4667 10.031 11.8667 9.89659C12 9.76222 12.2667 9.62785 12.5333 9.49349C12.8 9.35912 13.0667 9.22475 13.3333 8.95602C12.5333 9.76222 11.7333 10.2997 10.8 10.5684C10.9333 10.8372 11.3333 11.2403 11.7333 11.6434C12.5333 11.6434 13.2 11.509 13.6 11.2403C14.1333 10.9715 14.5333 10.8372 14.9333 10.5684C15.3333 10.2997 15.4667 10.031 15.6 9.89659L16 9.76222C16 8.68728 15.8667 7.61235 15.7333 6.67178C15.4667 5.59685 15.3333 4.79064 15.0667 3.98444ZM6.53333 7.88108C6.13333 8.28418 5.86667 8.41855 5.46667 8.41855C5.06667 8.41855 4.8 8.28418 4.53333 8.01545C4.26667 7.74672 4.13333 7.34361 4.13333 6.94051C4.13333 6.53741 4.26667 6.13431 4.53333 5.86558C4.8 5.59684 5.06667 5.46248 5.46667 5.46248C5.86667 5.46248 6.13333 5.59684 6.4 5.86558C6.66667 6.13431 6.8 6.53741 6.8 6.94051C6.93333 7.34361 6.8 7.61235 6.53333 7.88108ZM11.4667 7.88108C11.2 8.28418 10.8 8.41855 10.5333 8.41855C10.1333 8.41855 9.86667 8.28418 9.6 8.01545C9.33333 7.74672 9.06667 7.34361 9.06667 6.94051C9.06667 6.53741 9.2 6.13431 9.46667 5.86558C9.73333 5.59684 10 5.46248 10.4 5.46248C10.8 5.46248 11.0667 5.59684 11.3333 5.86558C11.6 6.13431 11.7333 6.53741 11.7333 6.94051C11.8667 7.34361 11.7333 7.61235 11.4667 7.88108Z" fill="#7289DA"/>
</svg>
