<svg width="35" height="27" viewBox="0 0 35 27" fill="none" xmlns="http://www.w3.org/2000/svg">
<path fill-rule="evenodd" clip-rule="evenodd" d="M35 3.24002C33.6938 3.79644 32.3118 4.16033 30.8984 4.32002C32.3832 3.47141 33.6437 2.13653 34.1797 0.540027C32.7305 1.32763 31.1601 1.87491 29.5312 2.16002C28.8564 1.47417 28.0486 0.929463 27.156 0.558371C26.2635 0.18728 25.3044 -0.00260642 24.3359 2.70203e-05C20.3766 2.70203e-05 17.2266 2.9873 17.2266 6.75002C17.2266 7.28759 17.2074 7.87403 17.2266 8.37002C11.2711 8.08679 6.00469 5.48345 2.46094 1.35003C1.87483 2.32852 1.5898 3.4543 1.64062 4.59002C1.64062 6.96251 2.71797 9.03287 4.64844 10.26C3.50642 10.2408 2.384 9.96374 1.36719 9.45002V9.72002C1.36719 13.0281 4.09883 15.5674 7.38281 16.2C6.75902 16.37 6.1158 16.4608 5.46875 16.47C5.01382 16.5078 4.55649 16.5078 4.10156 16.47C5.01758 19.183 7.52773 21.0092 10.6641 21.06C8.16212 22.9816 5.08374 24.0265 1.91406 24.03C1.32891 24.03 0.557813 23.8154 0 23.76C3.17188 25.6919 7.16133 27 11.2109 27C24.4043 27 31.4453 16.5764 31.4453 7.56002C31.4453 7.26302 31.459 7.04243 31.4453 6.75002C32.8334 5.79948 34.0374 4.61063 35 3.24002Z" fill="#413239"/>
</svg>
