<svg width="20" height="17" viewBox="0 0 20 17" fill="none" xmlns="http://www.w3.org/2000/svg">
<g clip-path="url(#clip0)">
<path d="M11.4278 11.0329C10.8238 10.6589 10.1249 10.5206 9.41931 10.5206H6.15824C5.27626 10.5206 4.39726 10.5163 3.51529 10.5206C2.95561 10.5254 2.40447 10.6538 1.90402 10.8961C1.37854 11.1439 0.953122 11.5365 0.609968 11.9879C0.151936 12.5961 0 13.329 0 14.0655V16.1582C0.00325656 16.3799 0.0958183 16.5916 0.258018 16.7484C0.420217 16.9052 0.639269 16.9947 0.868631 16.9978H10.7875C11.2455 16.9978 11.7035 17.0036 12.1616 16.9978H12.1816C12.4108 16.9945 12.6297 16.905 12.7917 16.7482C12.9538 16.5914 13.0462 16.3798 13.0495 16.1582V13.9086C13.0495 13.8936 13.0495 13.8792 13.0495 13.8642C13.0452 13.2989 12.8945 12.7437 12.6113 12.2491C12.328 11.7546 11.9212 11.3365 11.4278 11.0329Z" fill="#D6DADC"/>
<path d="M19.9985 1.11977C19.9978 0.920394 19.9426 0.72474 19.8385 0.55263C19.7343 0.38052 19.585 0.238069 19.4056 0.139706C19.2234 0.0454039 19.0193 -0.00243166 18.8127 0.00071999C18.4028 0.00071999 17.9922 0.00071999 17.5838 0.00071999H13.9707C13.7879 -0.00873216 13.6046 0.0062145 13.426 0.0451382C12.9309 0.174811 12.6107 0.630456 12.6011 1.11118V5.93843C12.6029 6.10366 12.6548 6.26473 12.7505 6.40164C12.8462 6.53855 12.9814 6.64527 13.1393 6.70854C13.2972 6.77181 13.4709 6.78884 13.6387 6.75751C13.8066 6.72619 13.9612 6.64789 14.0834 6.53235C14.4727 6.16602 14.8621 5.79873 15.2514 5.43049H18.7593C18.7906 5.433 18.8221 5.433 18.8534 5.43049L18.909 5.42619L18.9572 5.42189C19.2372 5.39819 19.4981 5.27489 19.6895 5.07586C19.8845 4.86974 19.9942 4.60148 19.9978 4.32218V1.61267C19.9985 1.44933 20.0007 1.28312 19.9985 1.11977ZM18.852 3.75406L18.8846 3.74976C18.8749 3.75323 18.8645 3.75469 18.8542 3.75406H18.852ZM15.0372 3.75406H14.9157C14.7046 3.7565 14.5005 3.82739 14.3361 3.95537V1.68861C14.3361 1.68861 14.3361 1.68431 14.3361 1.68216H18.2642C18.2642 1.85267 18.2583 2.02318 18.2583 2.19226V3.75406H15.0372Z" fill="#182345"/>
<path d="M6.52587 8.90369C8.88892 8.90369 10.8045 7.05199 10.8045 4.76779C10.8045 2.48359 8.88892 0.631882 6.52587 0.631882C4.16282 0.631882 2.24719 2.48359 2.24719 4.76779C2.24719 7.05199 4.16282 8.90369 6.52587 8.90369Z" fill="#D6DADC"/>
</g>
<defs>
<clipPath id="clip0">
<rect width="20" height="17" fill="white"/>
</clipPath>
</defs>
</svg>
