<svg width="21" height="21" viewBox="0 0 21 21" fill="none" xmlns="http://www.w3.org/2000/svg">
<g clip-path="url(#clip0)">
<path d="M18.4801 20.45H0.120117V0.119995H20.4601V12.31H18.4601V2.11H12.2601V4.11H10.2601V2.11H2.11012V9.29H10.2901V7.2H12.2901V11.28H2.11012V18.47H10.2901V14.32H12.2901V18.47H18.4901V16.41H20.4901V20.41L18.4801 20.45Z" fill="white" stroke="white" stroke-width="0.25" stroke-miterlimit="10"/>
</g>
<defs>
<clipPath id="clip0">
<rect width="20.59" height="20.57" fill="white"/>
</clipPath>
</defs>
</svg>
