<svg width="25" height="22" viewBox="0 0 25 22" fill="none" xmlns="http://www.w3.org/2000/svg">
<g clip-path="url(#clip0)">
<path d="M24.3072 7.95389L21.8083 11.3949H21.7515C21.6868 11.4646 21.6098 11.5219 21.5243 11.5641C21.4445 11.6018 21.3572 11.6213 21.2688 11.6213C21.1804 11.6213 21.0931 11.6018 21.0132 11.5641H20.8996L17.0945 9.36415C17.0257 9.32882 16.9649 9.27989 16.9159 9.22036C16.8668 9.16084 16.8305 9.09197 16.8093 9.018C16.788 8.94403 16.7822 8.86652 16.7921 8.79023C16.8021 8.71395 16.8277 8.6405 16.8674 8.5744C16.9535 8.43582 17.0897 8.33524 17.2481 8.29328C17.4065 8.25132 17.5751 8.27117 17.7193 8.34876L20.5589 9.98466C20.2341 7.64082 19.0322 5.50454 17.1928 4.00141C15.3533 2.49828 13.0112 1.73864 10.6331 1.87382C8.25507 2.009 6.01555 3.02907 4.36073 4.73083C2.70592 6.43259 1.75728 8.69111 1.70381 11.0565C1.73377 13.5302 2.74804 15.8916 4.52508 17.625C6.30212 19.3583 8.69753 20.3228 11.1881 20.3077C12.83 20.2997 14.4426 19.8758 15.8736 19.0763C17.3046 18.2768 18.5067 17.128 19.3662 15.7385C19.4523 15.5999 19.5886 15.4993 19.747 15.4574C19.9054 15.4154 20.074 15.4353 20.2181 15.5129C20.2869 15.5482 20.3477 15.5971 20.3968 15.6566C20.4458 15.7162 20.4821 15.785 20.5034 15.859C20.5247 15.933 20.5305 16.0105 20.5205 16.0868C20.5105 16.1631 20.4849 16.2365 20.4453 16.3026C19.4896 17.8755 18.1395 19.1752 16.527 20.075C14.9144 20.9747 13.0945 21.4436 11.2449 21.4359C9.85398 21.4471 8.47445 21.186 7.18509 20.6676C5.89574 20.1492 4.72182 19.3836 3.73036 18.4145C2.7389 17.4454 1.94933 16.2919 1.40672 15.0197C0.864116 13.7475 0.579105 12.3816 0.567963 11C0.614963 8.35993 1.64924 5.83163 3.4695 3.9072C5.28976 1.98277 7.76578 0.79988 10.4157 0.588751C13.0656 0.377623 15.6998 1.15336 17.8056 2.76498C19.9114 4.37661 21.3382 6.70882 21.8083 9.30773L23.3417 7.16414C23.4338 7.03166 23.5742 6.93995 23.7332 6.90837C23.8921 6.87679 24.0572 6.90782 24.1936 6.99491C24.3184 7.11873 24.3975 7.28077 24.4182 7.4548C24.4388 7.62883 24.3997 7.80467 24.3072 7.95389Z" fill="white" stroke="white" stroke-width="2" stroke-miterlimit="10"/>
</g>
<defs>
<clipPath id="clip0">
<rect width="25" height="22" fill="white"/>
</clipPath>
</defs>
</svg>
