<svg width="16" height="16" viewBox="0 0 16 16" fill="none" xmlns="http://www.w3.org/2000/svg">
<g clip-path="url(#clip0)">
<path d="M15.6 13.86L12.31 10.57C12.9574 9.6412 13.36 8.56412 13.4806 7.43842C13.6012 6.31273 13.4359 5.1748 13 4.12996C12.6647 3.31865 12.171 2.58236 11.5477 1.96421C10.9244 1.34606 10.184 0.858459 9.36996 0.529961C8.5412 0.178458 7.65018 -0.00268555 6.74996 -0.00268555C5.84974 -0.00268555 4.95872 0.178458 4.12996 0.529961C3.322 0.862737 2.58792 1.35217 1.97005 1.97005C1.35217 2.58792 0.862737 3.322 0.529961 4.12996C0.178458 4.95872 -0.00268555 5.84974 -0.00268555 6.74996C-0.00268555 7.65018 0.178458 8.5412 0.529961 9.36996C0.86087 10.1826 1.34933 10.9217 1.96719 11.5447C2.58505 12.1677 3.32009 12.6623 4.12996 13C5.17292 13.4375 6.30899 13.6063 7.4341 13.491C8.55922 13.3757 9.63742 12.9799 10.57 12.34L13.86 15.62C13.9694 15.7377 14.1028 15.8307 14.2511 15.8928C14.3994 15.9549 14.5593 15.9846 14.72 15.98C14.8882 15.9869 15.0561 15.9591 15.2132 15.8985C15.3702 15.8379 15.5132 15.7457 15.6332 15.6276C15.7532 15.5094 15.8477 15.3679 15.9108 15.2118C15.9739 15.0557 16.0042 14.8883 16 14.72C15.9848 14.3919 15.8411 14.0829 15.6 13.86ZM9.77996 9.77996C9.07633 10.4819 8.15081 10.9178 7.1615 11.0131C6.1722 11.1084 5.18049 10.8572 4.3558 10.3025C3.53111 9.74781 2.92461 8.92397 2.6399 7.97173C2.3552 7.01949 2.40995 5.99795 2.79482 5.0816C3.17968 4.16526 3.87078 3.41097 4.75004 2.9476C5.6293 2.48423 6.64217 2.34053 7.61562 2.54104C8.58907 2.74156 9.4627 3.27384 10.0873 4.04698C10.7118 4.82011 11.0486 5.78611 11.04 6.77996C11.0446 7.33936 10.9353 7.89385 10.7187 8.40962C10.502 8.92539 10.1827 9.39165 9.77996 9.77996Z" fill="#C84442"/>
</g>
<defs>
<clipPath id="clip0">
<rect width="15.95" height="15.95" fill="white"/>
</clipPath>
</defs>
</svg>
