<svg width="24" height="23" viewBox="0 0 24 23" fill="none" xmlns="http://www.w3.org/2000/svg">
<g clip-path="url(#clip0)">
<path d="M23.9219 8.71072C23.8443 8.5579 23.7668 8.40508 23.6116 8.40508L15.8547 7.2589L12.364 0.228996C12.326 0.160454 12.2698 0.103267 12.2016 0.0634291C12.1334 0.0235916 12.0555 0.00257111 11.9762 0.00257111C11.8969 0.00257111 11.819 0.0235916 11.7508 0.0634291C11.6825 0.103267 11.6264 0.160454 11.5883 0.228996L8.09772 7.2589L0.340766 8.40508C0.260268 8.41044 0.184472 8.44436 0.127422 8.50056C0.070371 8.55676 0.0359329 8.63143 0.0304879 8.71072C0.00514201 8.78767 -0.0010416 8.86949 0.012459 8.94929C0.0259595 9.02908 0.0587481 9.10451 0.108057 9.1692L5.77063 14.6709L4.45195 22.4649C4.44125 22.5479 4.44964 22.6322 4.4765 22.7115C4.50335 22.7909 4.54798 22.8633 4.60709 22.9233C4.67876 22.9608 4.75866 22.9804 4.8398 22.9804C4.92093 22.9804 5.00083 22.9608 5.0725 22.9233L12.0538 19.2556L19.035 22.9233C19.1126 22.9233 19.1902 22.9998 19.2677 22.9998C19.3098 23.0048 19.3525 23.0005 19.3928 22.9873C19.433 22.9741 19.4698 22.9522 19.5004 22.9233C19.5823 22.8824 19.6445 22.8113 19.6736 22.7255C19.7026 22.6397 19.6961 22.546 19.6556 22.4649L18.3369 14.6709L23.9995 9.1692C23.9363 9.02482 23.9097 8.86748 23.9219 8.71072Z" fill="#ED7B38"/>
</g>
<defs>
<clipPath id="clip0">
<rect width="24" height="23" fill="white"/>
</clipPath>
</defs>
</svg>
